{
  "tasks": {
    "developerTaskName": "shop",
    "productionTaskName": "shop:prod",
    "watchingTaskName": "shop:watch"
  },
  "bundleFiles": {
    "css": "./gulp-bundle-config/shop-css.bundles.config.json",
    "js": "./gulp-bundle-config/shop-js.bundles.config.json"
  }
}